{
  "project_info": {
    "project_number": "500863372150",
    "project_id": "cloud-messaging-5fe43",
    "storage_bucket": "cloud-messaging-5fe43.appspot.com"
  },
  "client": [
    {
      "client_info": {
        "mobilesdk_app_id": "1:500863372150:android:946e73fb9a8c23baac0857",
        "android_client_info": {
          "package_name": "com.example.fcm"
        }
      },
      "oauth_client": [
        {
          "client_id": "500863372150-7e7b4ckgqk3t5g8t6uolkgin2fnor4rp.apps.googleusercontent.com",
          "client_type": 3
        }
      ],
      "api_key": [
        {
          "current_key": "AIzaSyDL4_fV6S6e3R5cDdzj5H8nOi8c37R0oIk"
        }
      ],
      "services": {
        "appinvite_service": {
          "other_platform_oauth_client": [
            {
              "client_id": "500863372150-7e7b4ckgqk3t5g8t6uolkgin2fnor4rp.apps.googleusercontent.com",
              "client_type": 3
            }
          ]
        }
      }
    }
  ],
  "configuration_version": "1"
}